1,4,77,1,4,0.1727,11.021,NaN,10.006,68,6,1.1921,351.01,352.21,NaN,0,0,1,3,NaN
2,4,117,1,5,0.93302,15.017,NaN,14.018,13,7,0.95453,68.011,68.966,NaN,0,0,3,1,NaN
3,2,165,2,5,0.88335,21.011,NaN,20.012,122,2,0.8651,166.01,166.87,NaN,3,0,3,3,NaN
4,2,125,2,1,0.90501,27.021,NaN,26.022,170,1,0.25118,414.01,414.26,NaN,2,0,1,1,NaN
5,1,119,1,5,0.88515,31.017,NaN,30.018,137,8,0.72563,242.01,242.74,NaN,5,0,2,3,NaN
6,2,102,1,6,0.77841,36.012,NaN,35.013,79,6,0.5651,404.02,404.59,NaN,7,0,1,1,NaN
7,4,20,1,4,0.54272,40.008,NaN,39.025,76,5,1.7119,390.01,391.72,NaN,0,0,1,3,NaN
8,1,30,1,4,0.49813,44.02,NaN,43.021,19,6,1.6978,99.012,100.71,NaN,4,0,3,3,NaN
9,1,144,2,1,0.12056,50.014,NaN,49.015,62,1,0.79879,318.01,318.81,NaN,1,0,2,2,NaN
10,1,141,2,1,0.49373,55.008,NaN,54.009,99,7,0.77004,56.007,56.777,NaN,6,0,2,1,NaN
11,4,129,2,1,0.71438,60.02,NaN,59.004,38,1,0.32166,194.01,194.33,NaN,0,0,2,1,NaN
12,4,35,1,4,1.6476,65.015,NaN,64.016,151,6,1.1452,317.02,318.16,NaN,0,0,2,3,NaN
13,1,76,1,2,0.74884,70.009,NaN,69.01,36,5,1.0563,185.02,186.08,NaN,2,0,2,2,NaN
14,3,179,2,2,0.66615,75.004,NaN,74.005,61,2,1.0506,314.02,315.07,NaN,2,0,1,2,NaN
15,1,168,2,1,0.1174,79.016,NaN,78.018,50,1,1.0333,257.01,258.05,NaN,1,0,1,2,NaN
16,1,63,1,4,1.2979,83.012,NaN,82.013,66,6,0.95623,339.01,339.97,NaN,4,0,3,2,NaN
17,2,8,1,5,0.92015,89.006,NaN,88.007,23,7,0.2247,122.02,122.25,NaN,8,0,1,2,NaN
18,1,149,2,1,0.45174,93.018,NaN,92.003,60,1,0.95626,308.03,308.98,NaN,1,0,3,1,NaN
19,2,151,2,1,1.4581,99.012,NaN,98.013,140,2,0.91079,259.01,259.92,NaN,3,0,3,3,NaN
20,2,2,1,4,1.6484,105.01,NaN,104.01,80,6,1.1934,408.02,409.21,NaN,7,0,3,3,NaN
21,2,3,1,7,1.7977,111.02,NaN,110.02,48,6,0.14284,247.02,247.17,NaN,7,0,2,1,NaN
22,2,131,2,1,0.68326,116.01,NaN,115.01,107,2,0.72314,97.014,97.737,NaN,3,0,3,3,NaN
23,3,9,1,8,0.0059839,122.02,NaN,121.01,102,8,0.3153,73.006,73.321,NaN,8,0,1,3,NaN
24,1,115,1,8,0.20506,126.02,NaN,125.02,109,7,1.285,107.02,108.31,NaN,4,0,2,2,NaN
25,4,49,1,2,1.4184,131.01,NaN,130.01,57,6,0.64723,295.02,295.67,NaN,0,0,2,3,NaN
26,4,116,1,3,0.96767,136.01,NaN,135.01,4,6,0.5055,27.005,27.51,NaN,0,0,2,1,NaN
27,4,11,1,2,0.36413,141.02,NaN,140.02,18,8,1.1816,95.016,96.198,NaN,0,0,1,1,NaN
28,3,61,1,4,0.4724,145.01,NaN,144.01,17,8,0.47241,90.022,90.494,NaN,8,0,2,3,NaN
29,1,108,1,4,0.82961,150.01,NaN,149.01,119,2,0.964,153.01,153.97,NaN,1,0,1,1,NaN
30,2,42,1,4,0.59325,154.02,NaN,153.02,125,4,0.45128,184.01,184.46,NaN,7,0,2,2,NaN
31,1,134,2,2,0.36643,159.02,NaN,158.02,127,2,1.2132,194.01,195.23,NaN,1,0,3,2,NaN
32,4,38,1,2,0.96484,165.01,NaN,164.01,147,5,0.93074,295.02,295.95,NaN,0,0,3,1,NaN
33,1,33,1,2,0.17013,171.02,NaN,170.02,111,8,0.9105,116.01,116.92,NaN,6,0,3,2,NaN
34,2,21,1,7,0.56843,177.01,NaN,176.01,124,4,1.173,178.01,179.19,NaN,6,0,3,1,NaN
35,3,138,2,1,0.079077,183.01,NaN,182.01,20,3,0.57553,105.02,105.6,NaN,3,0,2,2,NaN
36,2,107,1,7,0.60334,188.02,NaN,187.02,87,6,1.1809,443.02,444.2,NaN,7,0,3,2,NaN
37,2,122,2,1,0.91396,194.01,NaN,193.01,101,1,0.020916,67.012,67.033,NaN,2,0,3,3,NaN
38,4,161,2,1,0.0083413,200.01,NaN,199.01,95,1,0.29152,34.014,34.305,NaN,0,0,2,2,NaN
39,4,69,1,2,0.43685,205.02,NaN,204.02,29,2,0.6535,150.01,150.66,NaN,0,0,3,2,NaN
40,2,159,2,1,0.23518,211.01,NaN,210.01,145,1,0.07876,283.02,283.1,NaN,2,0,3,2,NaN
41,4,140,2,1,0.0077031,217,NaN,216.01,104,1,0.8601,82.013,82.873,NaN,0,0,2,3,NaN
42,4,130,2,1,1.182,222.02,NaN,221.02,37,1,0.0063166,190.02,190.02,NaN,0,0,1,1,NaN
43,1,39,1,7,0.45824,226.01,NaN,225.01,121,4,1.5238,161.01,162.54,NaN,2,0,2,2,NaN
44,3,52,1,2,1.1356,231.01,NaN,230.01,144,1,0.58655,279.02,279.61,NaN,1,0,1,2,NaN
45,3,136,2,1,0.4591,235.02,NaN,234.02,49,1,0.46007,252.02,252.48,NaN,1,0,2,1,NaN
46,1,93,1,4,0.39233,240.01,NaN,239.01,135,5,0.50079,233,233.51,NaN,4,0,2,1,NaN
47,3,81,1,7,0.3096,245.01,NaN,244.01,47,6,0.24903,241.01,241.26,NaN,6,0,3,1,NaN
48,4,27,1,7,0.2672,251.02,NaN,250.02,84,5,1.2788,429.01,430.29,NaN,0,0,1,1,NaN
49,4,132,2,2,0.1914,255.01,NaN,254.02,141,1,0.61252,265.02,265.63,NaN,0,0,1,1,NaN
50,2,66,1,2,1.2436,259.01,NaN,258.01,35,6,0.69274,181.01,181.7,NaN,7,0,1,2,NaN
51,1,145,2,1,0.66385,263.01,NaN,262.01,120,2,0.59164,157.02,157.61,NaN,1,0,1,2,NaN
52,NaN,80,1,3,0.82716,267.02,NaN,266.02,180,NaN,NaN,NaN,NaN,NaN,NaN,0,2,2,NaN
53,3,5,1,3,0.66434,272.01,NaN,271.01,55,6,0.20438,284.02,284.22,NaN,6,0,3,1,NaN
54,2,147,2,1,0.70265,278.01,NaN,277.01,82,2,0.63006,420.01,420.64,NaN,3,0,1,1,NaN
55,2,89,1,4,0.3224,282.02,NaN,281.02,158,5,0.79907,355.03,355.82,NaN,7,0,1,2,NaN
56,2,105,1,7,0.64661,286.02,NaN,285.02,24,7,0.50891,126.02,126.53,NaN,8,0,1,2,NaN
57,2,71,1,4,0.45887,290.01,NaN,289.01,165,4,1.0806,388.02,389.11,NaN,5,0,3,3,NaN
58,3,65,1,5,0.81717,296,NaN,295.01,98,7,0.3728,51.013,51.385,NaN,7,0,2,3,NaN
59,1,171,2,1,0.10184,301.02,NaN,300.02,129,2,1.239,204.02,205.26,NaN,1,0,1,1,NaN
60,1,50,1,2,0.48171,305.01,NaN,304.01,11,2,0.69011,60.02,60.71,NaN,1,0,1,1,NaN
61,2,100,1,2,0.49413,309.01,NaN,308.01,174,4,1.3814,432.01,433.39,NaN,7,0,2,2,NaN
62,1,169,2,2,0.0077334,314.02,NaN,313.02,39,2,0.34231,199.02,199.37,NaN,1,0,3,1,NaN
63,1,109,1,3,0.17716,320.01,NaN,319.01,33,7,0.99418,171.02,172.01,NaN,5,0,1,2,NaN
64,4,94,1,3,0.34925,324.01,NaN,323.01,34,6,0.7824,175.02,175.8,NaN,0,0,3,2,NaN
65,2,173,2,2,0.0076747,330.02,NaN,329.02,22,1,0.31503,116.01,116.33,NaN,2,0,3,1,NaN
66,2,118,1,2,1.0573,336.01,NaN,335.01,69,4,1.2677,355.03,356.29,NaN,6,0,3,2,NaN
67,4,153,2,2,0.095589,342.01,NaN,341.01,3,2,0.32426,22.01,22.334,NaN,0,0,2,3,NaN
68,1,79,1,2,0.66018,347.02,NaN,346.02,25,6,0.73714,130.01,130.75,NaN,4,0,1,3,NaN
69,2,25,1,3,1.0003,351.01,NaN,350.01,138,7,0.42624,247.02,247.45,NaN,8,0,3,2,NaN
70,2,90,1,4,0.68659,357.01,NaN,356.01,78,6,0.64165,400.01,400.65,NaN,7,0,1,2,NaN
71,3,51,1,8,0.018216,361.02,NaN,360.02,175,8,0.33063,437.01,437.34,NaN,8,0,2,3,NaN
72,4,82,1,7,0.41547,366.01,NaN,365.02,96,5,1.1448,39.009,40.153,NaN,0,0,3,3,NaN
73,3,16,1,2,0.71776,372.01,NaN,371.01,44,6,0.96312,227.01,227.97,NaN,6,0,2,3,NaN
74,3,91,1,2,0.67436,377.02,NaN,376.02,116,4,0.55033,140.02,140.57,NaN,4,0,1,3,NaN
75,4,26,1,3,1.7905,381.02,NaN,380.02,89,6,0.67979,454.02,454.7,NaN,0,0,2,1,NaN
76,2,180,2,1,0.013958,386.01,NaN,385.01,139,1,0.80853,253.02,253.83,NaN,2,0,3,3,NaN
77,1,54,1,7,0.5775,392.02,NaN,391.02,110,8,1.1223,112.02,113.14,NaN,7,0,1,1,NaN
78,0,97,1,6,0.28572,396.02,NaN,395.02,154,NaN,NaN,332.02,NaN,NaN,4,0,3,1,NaN
79,3,177,2,1,0.0079037,402.01,NaN,401.01,64,1,0.12964,329.02,329.15,NaN,1,0,3,3,NaN
80,3,152,2,1,0.23334,408.02,NaN,407.02,156,1,0.20422,344.02,344.22,NaN,1,0,3,3,NaN
81,3,103,1,3,0.35193,414.01,NaN,413.01,85,4,0.43507,433.01,433.45,NaN,4,0,3,1,NaN
82,1,142,2,1,0.47824,420.01,NaN,419.01,6,2,1.1463,36.012,37.158,NaN,1,0,3,1,NaN
83,3,31,1,7,1.1398,426.02,NaN,425.02,15,8,0.19057,80.015,80.206,NaN,8,0,2,3,NaN
84,2,4,1,7,1.0248,431.01,NaN,430.01,45,6,0.60823,232.01,232.61,NaN,7,0,1,2,NaN
85,2,62,1,5,0.64473,435.02,NaN,434.03,161,5,0.12483,368.01,368.14,NaN,7,0,3,2,NaN
86,1,156,2,1,0.39502,441.02,NaN,440,73,1,0.093958,373.02,373.12,NaN,1,0,3,1,NaN
87,3,114,1,2,0.17731,447.01,NaN,446.01,9,8,1.0964,50.014,51.11,NaN,8,0,2,3,NaN
88,3,28,1,7,0.52568,452.02,NaN,451.01,46,6,0.93985,236.02,236.96,NaN,6,0,2,3,NaN
89,2,18,1,4,0.45112,457.02,NaN,456.02,105,6,0.89735,87.008,87.905,NaN,7,0,1,3,NaN
90,2,45,1,4,1.4474,461.01,NaN,460.02,97,5,1.1745,45.019,46.193,NaN,6,0,3,3,NaN
91,1,57,1,2,1.3922,11.021,NaN,10.022,133,5,1.0903,223.01,224.11,NaN,2,0,1,2,NaN
92,1,95,1,7,0.8204,15.017,NaN,14.018,167,4,1.044,399.01,400.06,NaN,3,0,1,2,NaN
93,3,162,2,1,0.4723,19.013,NaN,18.014,177,1,1.3875,446.01,447.4,NaN,1,0,3,2,NaN
94,1,46,1,7,0.91848,25.006,NaN,24.007,131,5,0.39943,212.01,212.41,NaN,4,0,2,1,NaN
95,3,37,1,5,0.82727,30.018,NaN,29.019,5,6,1.366,32.016,33.382,NaN,6,0,1,1,NaN
96,2,1,1,4,1.1437,34.014,NaN,33.015,58,7,0.48452,300.02,300.5,NaN,8,0,1,3,NaN
97,2,166,2,1,0.19594,38.009,NaN,37.01,52,1,0.93431,270.02,270.95,NaN,2,0,2,3,NaN
98,1,164,2,1,0.0051008,43.021,NaN,42.005,1,2,0.34469,11.021,11.366,NaN,1,0,2,3,NaN
99,4,92,1,2,0.81371,48.016,NaN,47.017,54,6,0.76816,280.02,280.79,NaN,0,0,1,2,NaN
100,3,175,2,1,0.050069,52.011,NaN,51.012,74,1,0.46015,379.02,379.48,NaN,1,0,2,3,NaN
101,3,126,2,1,0.0075818,57.023,NaN,56.024,164,1,0.39691,384.01,384.41,NaN,1,0,1,2,NaN
102,3,67,1,3,0.63444,61.018,NaN,60.02,43,7,0.5888,221.02,221.61,NaN,7,0,3,3,NaN
103,1,36,1,2,0.0064957,67.012,NaN,66.013,21,7,1.1168,110.02,111.13,NaN,6,0,3,2,NaN
104,1,139,2,1,0.63926,73.006,NaN,72.024,12,1,1.0464,64.016,65.062,NaN,1,0,1,1,NaN
105,4,85,1,8,0.15489,77.018,NaN,76.019,173,8,0.76921,428.02,428.78,NaN,0,0,1,1,NaN
106,2,113,1,4,0.80714,81.014,NaN,80.015,150,3,0.65292,313.02,313.67,NaN,4,0,1,3,NaN
107,2,15,1,4,0.79522,85.01,NaN,84.011,123,4,0.99865,172.02,173.02,NaN,6,0,3,1,NaN
108,4,106,1,4,0.97687,91.02,NaN,90.021,155,7,0.40654,338.01,338.42,NaN,0,0,3,1,NaN
109,4,73,1,4,1.4632,97.014,NaN,96.015,71,4,1.3582,365.02,366.37,NaN,0,0,1,3,NaN
110,4,59,1,7,0.45946,101.01,NaN,100.03,26,5,0.88533,134.01,134.89,NaN,0,0,2,1,NaN
111,4,127,2,1,0.51197,106.02,NaN,105.02,179,1,0.00776,456.02,456.03,NaN,0,0,3,1,NaN
112,2,124,2,1,0.26237,112.01,NaN,111.02,143,1,1.1739,274.01,275.19,NaN,2,0,2,3,NaN
113,3,158,2,1,0.083688,117.01,NaN,116.01,67,1,0.10651,345,345.11,NaN,1,0,3,1,NaN
114,1,56,1,4,0.57731,123.02,NaN,122.02,149,2,0.017722,307.01,307.03,NaN,1,0,3,2,NaN
115,4,172,2,1,0.78355,129.01,NaN,128.01,176,1,0.43923,442.02,442.46,NaN,0,0,1,3,NaN
116,2,78,1,4,0.69165,133.01,NaN,132.03,28,6,0.54322,144.01,144.56,NaN,7,0,3,1,NaN
117,1,112,1,5,0.88145,139.02,NaN,138.02,113,7,0.70429,126.02,126.72,NaN,4,0,2,2,NaN
118,3,17,1,4,0.46264,144.01,NaN,143.02,168,4,0.19224,403.01,403.2,NaN,4,0,3,3,NaN
119,4,75,1,3,0.34895,150.01,NaN,149.01,90,6,0.78019,11.021,11.802,NaN,0,0,3,2,NaN
120,3,29,1,3,0.0077493,156.02,NaN,155.02,117,4,0.39463,144.01,144.41,NaN,4,0,2,2,NaN
121,4,155,2,4,0.4559,161.01,NaN,160.01,103,7,1.1748,77.019,78.193,NaN,0,0,2,1,NaN
122,3,83,1,5,1.2691,166.01,NaN,165.03,81,6,0.59175,414.01,414.61,NaN,6,0,3,3,NaN
123,2,40,1,5,1.0186,172.02,NaN,171.02,132,5,1.268,217.02,218.29,NaN,7,0,3,3,NaN
124,3,98,1,2,0.4651,178.01,NaN,177.01,114,4,1.0375,131.01,132.05,NaN,4,0,2,1,NaN
125,3,133,2,1,0.42972,183.02,NaN,182.02,51,1,0.73705,265.02,265.76,NaN,1,0,2,1,NaN
126,3,12,1,3,0.51493,188.02,NaN,187.02,157,7,1.4985,350.01,351.51,NaN,7,0,2,2,NaN
127,3,58,1,6,0.60822,193.01,NaN,192.01,70,6,1.242,361.02,362.26,NaN,6,0,1,2,NaN
128,3,53,1,2,0.12438,197.01,NaN,196.03,83,2,0.23359,424.02,424.25,NaN,2,0,2,3,NaN
129,1,168,2,1,0.0061216,202.02,NaN,201.02,50,1,0.27753,261.01,261.29,NaN,1,0,1,1,NaN
130,1,86,1,4,0.94916,206.02,NaN,205.02,77,5,0.30737,394.02,394.33,NaN,4,0,3,1,NaN
131,1,22,1,5,0.3875,212.01,NaN,211.01,171,7,1.6553,418.01,419.66,NaN,5,0,2,3,NaN
132,2,176,2,2,1.1521,217.02,NaN,216.01,31,1,0.73524,160.01,160.75,NaN,2,0,2,2,NaN
133,2,154,2,1,0.0062284,222.02,NaN,221.02,128,2,0.17145,200.01,200.18,NaN,3,0,1,2,NaN
134,3,84,1,3,1.2012,226.01,NaN,225.01,7,7,1.6159,42.022,43.638,NaN,7,0,1,3,NaN
135,4,157,2,1,1.1012,230.02,NaN,229.02,115,2,0.70685,136.01,136.71,NaN,0,0,1,1,NaN
136,3,174,2,1,0.0080773,234.02,NaN,233,10,2,1.2056,55.008,56.214,NaN,2,0,2,2,NaN
137,3,99,1,3,0.75032,239.01,NaN,238.02,108,5,0.90552,103.01,103.91,NaN,5,0,1,3,NaN
138,2,10,1,3,0.89044,243.01,NaN,242.01,2,3,1.9179,16.016,17.934,NaN,5,0,3,3,NaN
139,3,143,2,2,1.2564,249.02,NaN,248,106,2,0.34886,91.02,91.369,NaN,2,0,3,2,NaN
140,4,163,2,1,0.15872,255.01,NaN,254.02,14,3,1.4809,74.005,75.486,NaN,0,0,3,2,NaN
141,3,70,1,3,0.74104,261.01,NaN,260.01,40,2,0.7566,205.02,205.77,NaN,2,0,3,1,NaN
142,1,120,1,6,0.5225,267.02,NaN,266.02,53,7,0.56355,275.01,275.57,NaN,5,0,2,3,NaN
143,1,111,1,6,1.3919,272.01,NaN,271.01,16,7,0.37978,85.01,85.39,NaN,6,0,2,3,NaN
144,2,148,2,1,0.70924,277.01,NaN,276.01,134,2,0.58258,227.01,227.59,NaN,3,0,3,3,NaN
145,4,55,1,6,0.57078,283.02,NaN,282.02,59,5,1.1847,304.01,305.2,NaN,0,0,1,2,NaN
146,1,68,1,3,0.72707,287.01,NaN,286.01,72,4,0.058444,369.01,369.07,NaN,3,0,1,1,NaN
147,3,34,1,7,0.91493,291.01,NaN,290.01,8,8,0.23609,46.018,46.254,NaN,8,0,1,2,NaN
148,2,128,2,1,0.30277,295.02,NaN,294.02,88,1,1.4425,449.03,450.47,NaN,2,0,2,1,NaN
149,3,137,2,2,0.55607,300.02,NaN,299.02,166,1,0.030836,394.02,394.05,NaN,1,0,2,1,NaN
150,3,19,1,7,0.6173,305.01,NaN,304.01,92,7,0.60658,21.011,21.617,NaN,7,0,2,1,NaN
151,3,104,1,5,0.66959,310.02,NaN,309.01,126,2,0.21596,189.02,189.23,NaN,2,0,2,1,NaN
152,2,96,1,6,0.76316,315.02,NaN,314.02,159,4,0.0061272,359.02,359.03,NaN,6,0,1,3,NaN
153,1,60,1,8,0.68739,319.01,NaN,318.01,30,7,0.77115,156.02,156.79,NaN,5,0,1,3,NaN
154,1,14,1,4,0.84288,323.03,NaN,322.01,160,3,0.0062779,363.02,363.02,NaN,2,0,2,1,NaN
155,3,13,1,3,0.69651,328,NaN,327.02,63,5,1.0834,323.03,324.11,NaN,5,0,3,3,NaN
156,4,121,2,3,1.6065,334.01,NaN,333.02,86,2,0.26471,439.02,439.29,NaN,0,0,1,1,NaN
157,4,23,1,7,1.0587,338.01,NaN,337.01,56,5,0.56271,290.01,290.57,NaN,0,0,2,2,NaN
158,1,160,2,2,1.0953,343.02,NaN,342.01,65,1,0.93598,335.01,335.95,NaN,1,0,1,1,NaN
159,2,88,1,7,1.2752,347.02,NaN,346.02,146,7,0.64497,289.01,289.66,NaN,8,0,3,2,NaN
160,4,110,1,4,1.0418,353.01,NaN,352.01,130,5,1.1072,208.01,209.12,NaN,0,0,1,1,NaN
161,2,48,1,4,0.31736,357.02,NaN,356.01,152,3,1.1424,322.01,323.15,NaN,5,0,3,2,NaN
162,4,24,1,8,0.73157,363.02,NaN,362.02,163,8,0.35971,379.02,379.38,NaN,0,0,2,2,NaN
163,4,123,2,1,0.56882,368.01,NaN,367.01,41,7,0.52292,211.01,211.53,NaN,0,0,2,3,NaN
164,2,64,1,4,1.0695,373.02,NaN,372.01,136,5,0.86548,238.02,238.88,NaN,7,0,1,2,NaN
165,3,44,1,3,0.55432,377,NaN,376,94,7,0.90344,30.018,30.921,NaN,7,0,1,2,NaN
166,3,146,2,1,0.46184,381.01,NaN,380.02,148,1,0.32903,301.02,301.35,NaN,1,0,3,1,NaN
167,3,32,1,4,0.59616,387.01,NaN,386.01,178,1,0.28177,452.01,452.29,NaN,1,0,1,1,NaN
168,4,101,1,4,0.16042,391,NaN,390.01,162,4,0.62703,374.01,374.63,NaN,0,0,2,3,NaN
169,4,135,2,1,0.17268,396.02,NaN,395.02,93,1,1.0192,26.022,27.041,NaN,0,0,1,2,NaN
170,3,178,2,4,0.59321,400.01,NaN,399.01,27,2,0.60993,139.02,139.63,NaN,2,0,2,3,NaN
171,1,7,1,7,0.18174,405.02,NaN,404.01,118,8,0.25581,149.01,149.27,NaN,7,0,1,1,NaN
172,2,47,1,4,1.6099,409.02,NaN,408.02,75,6,0.60146,384.01,384.61,NaN,7,0,3,3,NaN
173,3,43,1,3,0.40822,415.01,NaN,414.01,169,4,1.4139,409.02,410.43,NaN,4,0,2,2,NaN
174,3,170,2,1,0.72557,420.01,NaN,419.01,91,2,0.61838,17.015,17.633,NaN,2,0,1,2,NaN
175,3,41,1,2,0.20906,424.02,NaN,423,142,2,0.79277,269.02,269.81,NaN,2,0,2,2,NaN
176,1,72,1,8,0.28605,429.01,NaN,428.02,42,8,0.13554,216.02,216.16,NaN,6,0,2,3,NaN
177,1,150,2,1,0.41865,434.03,NaN,433.01,32,1,0.3646,165.01,165.37,NaN,1,0,3,1,NaN
178,4,6,1,6,0.49696,440.02,NaN,439.02,172,8,0.51595,423.02,423.54,NaN,0,0,2,2,NaN
179,1,87,1,4,0.91021,445.01,NaN,444.02,100,3,1.1667,61.019,62.185,NaN,1,0,3,3,NaN
180,3,74,1,3,0.48451,451.01,NaN,450.01,153,3,0.6601,328.02,328.68,NaN,3,0,1,3,NaN
NaN,3,167,2,NaN,NaN,NaN,NaN,NaN,112,2,0.46005,122.02,122.48,NaN,2,0,1,NaN,NaN
